{
  "version": "1.0.0-*",
  "buildOptions": {
    "debugType": "portable",
    "emitEntryPoint": true
  },
  "dependencies": {},
  "frameworks": {
    "netcoreapp1.1": {
      "dependencies": {
        "Microsoft.NETCore.App": {
          "type": "platform",
          "version": "1.1.0"
        },
        "Microsoft.AspNetCore.Server.Kestrel": "1.0.0",
        "Microsoft.AspNetCore.Mvc": "1.0.0",
        "Microsoft.AspNetCore.Mvc.Core": "1.0.0",
        "Microsoft.AspNetCore.Authentication.Cookies":"1.0.0",
        "Microsoft.Extensions.Logging": "1.0.0",
        "Microsoft.Extensions.Logging.Console": "1.0.0"
      },
      "imports": "dnxcore50"
    }
  }
}
